{
    "data": {
        "id": "57cd4346d8793a0d124aa21e",
        "name": "Colleagues",
        "owner": "56e6bc34c219157cb207e813",
        "creationDate": "2016-09-03T16:52:34.312Z",
        "users": [
                  "5703d6619ccf39843c7ef89d"
                  ]
    }
}